	10000	100000	1000000	10000000
t1	=D16	=D32	=D48	=D64	
t2	=D81	=D97	=D113	=D129	
t3	=D146	=D162	=D178	=D194	
t4	=D211	=D227	=D243	=D259	
t5	=D276	=D292	=D308	=D324	
t6	=D341	=D357	=D373	=D389	
t7	=D406	=D422	=D438	=D454	
t8	=D471	=D487	=D503	=D519	
